\relax 
\citation{provenance}
\citation{opus}
\@writefile{toc}{\contentsline {chapter}{\numberline {1}Introduction}{5}}
\@writefile{lof}{\addvspace {10\p@ }}
\@writefile{lot}{\addvspace {10\p@ }}
\@writefile{toc}{\contentsline {section}{\numberline {1.1}The Problem}{5}}
\citation{communities}
\citation{graph-kernels}
\citation{patchysan}
\@writefile{toc}{\contentsline {section}{\numberline {1.2}My Project}{6}}
\@writefile{lof}{\contentsline {figure}{\numberline {1.1}{\ignorespaces \textit  {The envisioned machine learning model.}}}{6}}
\newlabel{classification}{{1.1}{6}}
\@writefile{toc}{\contentsline {subsection}{\numberline {1.2.1}Related Work}{6}}
\citation{patchysan}
\@writefile{toc}{\contentsline {section}{\numberline {1.3}A Promising Approach: Patchy-San}{7}}
\@writefile{toc}{\contentsline {section}{\numberline {1.4}Work Done}{7}}
\@writefile{toc}{\contentsline {section}{\numberline {1.5}Licence}{7}}
\@writefile{toc}{\contentsline {chapter}{\numberline {2}Preparation}{8}}
\@writefile{lof}{\addvspace {10\p@ }}
\@writefile{lot}{\addvspace {10\p@ }}
\@writefile{toc}{\contentsline {section}{\numberline {2.1}Requirements Analysis}{8}}
\@writefile{lot}{\contentsline {table}{\numberline {2.1}{\ignorespaces \textit  {A table describing the requirements of the project.}}}{8}}
\newlabel{req-list}{{2.1}{8}}
\@writefile{toc}{\contentsline {section}{\numberline {2.2}Starting Point}{9}}
\@writefile{toc}{\contentsline {section}{\numberline {2.3}Background Theory}{9}}
\@writefile{toc}{\contentsline {subsection}{\numberline {2.3.1}Patchy-San}{9}}
\@writefile{lof}{\contentsline {figure}{\numberline {2.1}{\ignorespaces \textit  {An overview of the basic Patchy-San algorithm.}}}{9}}
\newlabel{patchy-san}{{2.1}{9}}
\@writefile{toc}{\contentsline {subsection}{\numberline {2.3.2}Perceptrons}{10}}
\@writefile{lof}{\contentsline {figure}{\numberline {2.2}{\ignorespaces \textit  {A perceptron.}}}{11}}
\newlabel{perceptron}{{2.2}{11}}
\@writefile{toc}{\contentsline {subsection}{\numberline {2.3.3}Multilayer Perceptrons}{11}}
\@writefile{lof}{\contentsline {figure}{\numberline {2.3}{\ignorespaces \textit  {An example of a multilayer perceptron. Note the bias units at the top.}}}{11}}
\newlabel{multilayer}{{2.3}{11}}
\@writefile{toc}{\contentsline {subsection}{\numberline {2.3.4}Convolutional Neural Networks}{12}}
\@writefile{lof}{\contentsline {figure}{\numberline {2.4}{\ignorespaces \textit  {Neuron connectivity in a convolutional neural network. Also, a description of the convolution operation.}}}{12}}
\newlabel{convolution}{{2.4}{12}}
\@writefile{lof}{\contentsline {figure}{\numberline {2.5}{\ignorespaces \textit  {An illustration of convolution on a} $3\times 3$ \textit  {image using a} $2\times 2$ \textit  {kernel.}}}{13}}
\newlabel{valid_convolution}{{2.5}{13}}
\@writefile{toc}{\contentsline {subsection}{\numberline {2.3.5}Gradient Descent and Backpropagation}{13}}
\citation{backprop}
\@writefile{lof}{\contentsline {figure}{\numberline {2.6}{\ignorespaces \textit  {An illustration of max pooling using a 2x2 kernel on a 3x3 image.}}}{14}}
\newlabel{maxpool}{{2.6}{14}}
\newlabel{grad_update}{{2.2}{14}}
\@writefile{toc}{\contentsline {subsection}{\numberline {2.3.6}Other Network Layers}{14}}
\citation{dropout}
\citation{adam}
\citation{imagenet}
\@writefile{lof}{\contentsline {figure}{\numberline {2.7}{\ignorespaces \textit  {A possible representation of country names learnt by an embedding layer.}}}{15}}
\newlabel{embedding}{{2.7}{15}}
\@writefile{toc}{\contentsline {subsection}{\numberline {2.3.7}Stochastic Optimisation Using Adam}{15}}
\@writefile{toc}{\contentsline {subsection}{\numberline {2.3.8}Activation Functions}{15}}
\newlabel{relu}{{2.4}{15}}
\newlabel{sigmoid}{{2.5}{15}}
\@writefile{toc}{\contentsline {section}{\numberline {2.4}Setting Up}{16}}
\@writefile{lot}{\contentsline {table}{\numberline {2.2}{\ignorespaces \textit  {Frameworks and libraries used.}}}{16}}
\newlabel{frameworks}{{2.2}{16}}
\@writefile{toc}{\contentsline {chapter}{\numberline {3}Implementation}{17}}
\@writefile{lof}{\addvspace {10\p@ }}
\@writefile{lot}{\addvspace {10\p@ }}
\@writefile{toc}{\contentsline {section}{\numberline {3.1}Characteristics of the Data Provided}{17}}
\@writefile{toc}{\contentsline {subsection}{\numberline {3.1.1}Node and Edge Properties}{17}}
\@writefile{lof}{\contentsline {figure}{\numberline {3.1}{\ignorespaces \textit  {A Process node accessing a File node.}}}{18}}
\newlabel{relation}{{3.1}{18}}
\@writefile{lot}{\contentsline {table}{\numberline {3.1}{\ignorespaces \textit  {A description of node properties.}}}{18}}
\newlabel{node-prop}{{3.1}{18}}
\@writefile{lof}{\contentsline {figure}{\numberline {3.2}{\ignorespaces \textit  {An edge between two nodes, used in table 3.2\hbox {}.}}}{18}}
\newlabel{edge-ref}{{3.2}{18}}
\@writefile{toc}{\contentsline {subsection}{\numberline {3.1.2}Sparse Graph Structure}{18}}
\citation{communities}
\@writefile{lot}{\contentsline {table}{\numberline {3.2}{\ignorespaces \textit  {A description of edge types, with reference to figure 3.2\hbox {}.}}}{19}}
\newlabel{edge-prop}{{3.2}{19}}
\@writefile{lot}{\contentsline {table}{\numberline {3.3}{\ignorespaces \textit  {A description of edge states, which is the only available edge property.}}}{19}}
\newlabel{edge-state}{{3.3}{19}}
\@writefile{toc}{\contentsline {subsection}{\numberline {3.1.3}Graph Community Structure}{19}}
\@writefile{lof}{\contentsline {figure}{\numberline {3.3}{\ignorespaces \textit  {A common 'hub and spokes' pattern, demonstrating the sparsity of the graph.}}}{20}}
\newlabel{sparse}{{3.3}{20}}
\@writefile{lof}{\contentsline {figure}{\numberline {3.4}{\ignorespaces \textit  {A histogram showing the node degree, excluding nodes with degree $>$ 25.}}}{20}}
\newlabel{node-degree}{{3.4}{20}}
\@writefile{toc}{\contentsline {subsection}{\numberline {3.1.4}Variable Length Graph Patterns}{20}}
\@writefile{lof}{\contentsline {figure}{\numberline {3.5}{\ignorespaces \textit  {An example of a graph community.}}}{21}}
\newlabel{community}{{3.5}{21}}
\@writefile{toc}{\contentsline {subsection}{\numberline {3.1.5}Lack of Patterns Describing Malicious Behavior}{21}}
\@writefile{toc}{\contentsline {section}{\numberline {3.2}Graph Representation}{21}}
\@writefile{toc}{\contentsline {section}{\numberline {3.3}Preprocessing Steps}{22}}
\newlabel{pre}{{3.3}{22}}
\@writefile{toc}{\contentsline {subsection}{\numberline {3.3.1}Removal of Anomalous Nodes}{22}}
\@writefile{toc}{\contentsline {subsection}{\numberline {3.3.2}Consolidation of Node Versions}{22}}
\@writefile{lof}{\contentsline {figure}{\numberline {3.6}{\ignorespaces \textit  {A diagram showing many previous file versions that may exist.}}}{23}}
\newlabel{prev-versions}{{3.6}{23}}
\@writefile{lof}{\contentsline {figure}{\numberline {3.7}{\ignorespaces \textit  {The graph in figure 3.6\hbox {} after preprocessing.}}}{23}}
\newlabel{consolidated}{{3.7}{23}}
\@writefile{toc}{\contentsline {subsection}{\numberline {3.3.3}Renaming Symlinked files}{23}}
\@writefile{toc}{\contentsline {section}{\numberline {3.4}Overview of Model Pipeline}{23}}
\@writefile{lof}{\contentsline {figure}{\numberline {3.8}{\ignorespaces \textit  {An overview of the machine learning pipeline built, from input to prediction.}}}{24}}
\newlabel{overview}{{3.8}{24}}
\@writefile{toc}{\contentsline {section}{\numberline {3.5}Patchy-San}{24}}
\@writefile{toc}{\contentsline {subsection}{\numberline {3.5.1}Node Sequence Selection}{24}}
\@writefile{toc}{\contentsline {subsection}{\numberline {3.5.2}Neighbourhood Assembly}{25}}
\@writefile{lof}{\contentsline {figure}{\numberline {3.9}{\ignorespaces \textit  {A possible neighbourhood of size 7 demarcated by the dotted line.}}}{25}}
\newlabel{n-assembly}{{3.9}{25}}
\@writefile{toc}{\contentsline {subsection}{\numberline {3.5.3}Receptive Field Normalisation}{25}}
\citation{simhash}
\@writefile{lof}{\contentsline {figure}{\numberline {3.10}{\ignorespaces \textit  {Computing a number for each node based on labels and string properties.}}}{26}}
\newlabel{normalisation}{{3.10}{26}}
\@writefile{toc}{\contentsline {subsection}{\numberline {3.5.4}Output from Patchy-San}{26}}
\@writefile{lof}{\contentsline {figure}{\numberline {3.11}{\ignorespaces \textit  {An example of how the normalisation value might be computed.}}}{27}}
\newlabel{normalisation-example}{{3.11}{27}}
\@writefile{lof}{\contentsline {figure}{\numberline {3.12}{\ignorespaces \textit  {A depiction of the outputs from Patchy-San.}}}{27}}
\newlabel{ps-output}{{3.12}{27}}
\@writefile{toc}{\contentsline {section}{\numberline {3.6}Construction of Input Tensors}{27}}
\@writefile{toc}{\contentsline {subsection}{\numberline {3.6.1}Input Tensor for Node Properties}{28}}
\@writefile{toc}{\contentsline {subsection}{\numberline {3.6.2}Input Tensor for Edge Properties}{28}}
\newlabel{input-edges}{{3.6.2}{28}}
\@writefile{toc}{\contentsline {subsection}{\numberline {3.6.3}Input Tensor for Word Embeddings}{28}}
\newlabel{embed-tensor}{{3.6.3}{28}}
\@writefile{lof}{\contentsline {figure}{\numberline {3.13}{\ignorespaces \textit  {An illustration of the construction of input tensor for edges.}}}{29}}
\newlabel{patchy-edges}{{3.13}{29}}
\@writefile{toc}{\contentsline {section}{\numberline {3.7}Application of a Convolutional Neural Network}{30}}
\@writefile{lof}{\contentsline {figure}{\numberline {3.14}{\ignorespaces \textit  {The neural network architecture.}}}{30}}
\newlabel{architecture}{{3.14}{30}}
\@writefile{toc}{\contentsline {section}{\numberline {3.8}Training Data Generation}{31}}
\@writefile{lof}{\contentsline {figure}{\numberline {3.15}{\ignorespaces \textit  {An illustration of the training data pipeline.}}}{31}}
\newlabel{train-pipe}{{3.15}{31}}
\@writefile{toc}{\contentsline {chapter}{\numberline {4}Evaluation}{32}}
\@writefile{lof}{\addvspace {10\p@ }}
\@writefile{lot}{\addvspace {10\p@ }}
\@writefile{toc}{\contentsline {section}{\numberline {4.1}Evaluation Metrics}{32}}
\@writefile{toc}{\contentsline {subsection}{\numberline {4.1.1}Precision and Recall}{32}}
\@writefile{toc}{\contentsline {subsection}{\numberline {4.1.2}Accuracy}{33}}
\newlabel{byclt}{{4.7}{33}}
\newlabel{normdistbounds}{{4.9}{33}}
\newlabel{confidence}{{4.10}{33}}
\@writefile{toc}{\contentsline {section}{\numberline {4.2}Performance with Different Pattern Complexities}{34}}
\@writefile{lof}{\contentsline {figure}{\numberline {4.1}{\ignorespaces \textit  {The basic graph pattern used.}}}{34}}
\newlabel{4-node-structure}{{4.1}{34}}
\@writefile{lot}{\contentsline {table}{\numberline {4.1}{\ignorespaces \textit  {Accuracy metrics for dataset 1 and 2. Train and test accuracies are measured after 10 epochs of training.}}}{35}}
\newlabel{complexity-acc12}{{4.1}{35}}
\@writefile{lof}{\contentsline {figure}{\numberline {4.2}{\ignorespaces \textit  {Train accuracy at the end of each training epoch for datasets 1 and 2. The 95\% confidence intervals are also shown.}}}{36}}
\newlabel{train-acc12}{{4.2}{36}}
\@writefile{lof}{\contentsline {figure}{\numberline {4.3}{\ignorespaces \textit  {Test accuracy at the end of each training epoch for datasets 1 and 2. The 95\% confidence intervals are also shown.}}}{36}}
\newlabel{test-acc12}{{4.3}{36}}
\@writefile{lof}{\contentsline {figure}{\numberline {4.4}{\ignorespaces \textit  {Precision-recall curve for datasets 1 and 2.}}}{37}}
\newlabel{pr12}{{4.4}{37}}
\@writefile{lof}{\contentsline {figure}{\numberline {4.5}{\ignorespaces \textit  {Train accuracy at the end of each training epoch for datasets 3 and 6. The 95\% confidence intervals are also shown.}}}{38}}
\newlabel{train-acc36}{{4.5}{38}}
\@writefile{lof}{\contentsline {figure}{\numberline {4.6}{\ignorespaces \textit  {Test accuracy at the end of each training epoch for datasets 3 and 6. The 95\% confidence intervals are also shown.}}}{38}}
\newlabel{test-acc36}{{4.6}{38}}
\@writefile{lof}{\contentsline {figure}{\numberline {4.7}{\ignorespaces \textit  {Precision-recall curve for datasets 3 and 6.}}}{39}}
\newlabel{pr36}{{4.7}{39}}
\@writefile{lot}{\contentsline {table}{\numberline {4.2}{\ignorespaces \textit  {Accuracy metrics for dataset 3-6. Train and test accuracies are measured after 10 epochs of training.}}}{39}}
\newlabel{complexity-acc36}{{4.2}{39}}
\@writefile{toc}{\contentsline {section}{\numberline {4.3}Model and Pipeline Performance with Different Pattern Sizes}{40}}
\@writefile{lot}{\contentsline {table}{\numberline {4.3}{\ignorespaces \textit  {Training and processing time using an easy dataset}}}{40}}
\newlabel{efficiency1}{{4.3}{40}}
\@writefile{lot}{\contentsline {table}{\numberline {4.4}{\ignorespaces \textit  {Training and processing time using a hard dataset, similar to dataset 4 in section 4.2. Train and test accuracies are measured after 10 epochs of training.}}}{41}}
\newlabel{efficiency2}{{4.4}{41}}
\@writefile{toc}{\contentsline {chapter}{\numberline {5}Conclusion}{42}}
\@writefile{lof}{\addvspace {10\p@ }}
\@writefile{lot}{\addvspace {10\p@ }}
\@writefile{toc}{\contentsline {section}{\numberline {5.1}Work Done}{42}}
\@writefile{toc}{\contentsline {section}{\numberline {5.2}Future Work}{42}}
\bibcite{patchysan}{1}
\bibcite{provenance}{2}
\bibcite{opus}{3}
\bibcite{communities}{4}
\bibcite{graph-kernels}{5}
\bibcite{backprop}{6}
\bibcite{adam}{7}
\bibcite{imagenet}{8}
\bibcite{simhash}{9}
\bibcite{dropout}{10}
